[
    {
        "cedula": "1310532047",
        "apellido": "Velez Moreira",
        "nombre": "Ian Antonio",
        "semestre": "5to",
        "paralelo": "B"
    },
    {
        "cedula": "132786694",
        "nombre": "Luis Antonio",
        "apellido": "Gomez Cevallos",
        "semestre": "5to",
        "paralelo": "B"
    },
    {
        "cedula": "1389785444",
        "nombre": "Maria José",
        "apellido": "Arteaga Andrade",
        "semestre": "5to",
        "paralelo": "B"
    },
    {
        "cedula": "1317188603",
        "nombre": "Juan Martinez",
        "apellido": "Moreira Moreira",
        "semestre": "5to",
        "paralelo": "B"
    },
    {
        "cedula": "1310352795",
        "nombre": "Mariana Marice",
        "apellido": "Velez Moreira",
        "semestre": "5to",
        "paralelo": "B"
    },
    {
        "cedula": "1317896305",
        "nombre": "Pedro Fernandez",
        "apellido": "Moreira Solorzano",
        "semestre": "5to",
        "paralelo": "B"
    },
    {
        "cedula": "1317866324",
        "nombre": "Andres Benito",
        "apellido": "Suarez Zambrano",
        "semestre": "5to",
        "paralelo": "B"
    },
    {
        "cedula": "1314788236",
        "nombre": "Maria Leonor",
        "apellido": "Zambrano Zambrano",        
        "semestre": "5to",
        "paralelo": "B"
    },
    {
        "cedula": "1317155698",
        "nombre": "Matias Jose",
        "apellido": "Castaño Castaño",
        "semestre": "5to",
        "paralelo": "B"
    },
    {
        "cedula": "1317166525",
        "nombre": "Miguel Peña",
        "apellido": "Velez Velez",
        "semestre": "5to",
        "paralelo": "B"
    }
]